{
    "DynamicSignal": {
        "domain": "",
        "auth": "",
        "user": ""
    },
    "Word": {
        "mw": {
            "key": ""
        },
        "oxford": {
            "id": "",
            "key": ""
        }
    },
    "Weather": {
        "id": "",
        "key": ""
    }
}